module gitlab.com/rashedulAlamMazumder/go-web-app

require (
	cloud.google.com/go v0.36.0 // indirect
	github.com/denisenkom/go-mssqldb v0.0.0-20190204142019-df6d76eb9289 // indirect
	github.com/erikstmartin/go-testdb v0.0.0-20160219214506-8d10e4a1bae5 // indirect
	github.com/go-sql-driver/mysql v1.4.1 // indirect
	github.com/gofrs/uuid v3.2.0+incompatible // indirect
	github.com/gorilla/mux v1.7.0
	github.com/gorilla/schema v1.0.2
	github.com/gorilla/sessions v1.1.3
	github.com/jinzhu/gorm v1.9.2
	github.com/jinzhu/inflection v0.0.0-20180308033659-04140366298a // indirect
	github.com/jinzhu/now v1.0.0 // indirect
	github.com/lib/pq v1.0.0 // indirect
	github.com/mattn/go-sqlite3 v1.10.0 // indirect
	golang.org/x/crypto v0.0.0-20190225124518-7f87c0fbb88b
	google.golang.org/appengine v1.4.0 // indirect
)

go 1.13
